…
What is happening here? This makes a list of 100 cross validations. We
can pull the test and training df from each and make it a tibble

``` r
cv_df %>% pull(train) %>% .[[1]] %>% as.tibble()
```

    ## Warning: `as.tibble()` is deprecated as of tibble 2.0.0.
    ## Please use `as_tibble()` instead.
    ## The signature and semantics have changed, see `?as_tibble`.
    ## This warning is displayed once every 8 hours.
    ## Call `lifecycle::last_warnings()` to see where this warning was generated.

    ## # A tibble: 79 x 3
    ##       id      x       y
    ##    <int>  <dbl>   <dbl>
    ##  1     1 0.612  -0.0652
    ##  2     2 0.495   0.439 
    ##  3     6 0.382   1.69  
    ##  4     8 0.0458  0.0638
    ##  5     9 0.0328  0.127 
    ##  6    10 0.155   0.852 
    ##  7    12 0.149   0.700 
    ##  8    13 0.896  -3.02  
    ##  9    14 0.657  -0.234 
    ## 10    15 0.593   0.276 
    ## # … with 69 more rows

``` r
cv_df %>% pull(test) %>% .[[1]] %>% as.tibble()
```

    ## # A tibble: 21 x 3
    ##       id     x       y
    ##    <int> <dbl>   <dbl>
    ##  1     3 0.548  0.552 
    ##  2     4 0.242  0.976 
    ##  3     5 0.891 -2.64  
    ##  4     7 0.862 -1.55  
    ##  5    11 0.606  0.0177
    ##  6    16 0.305  1.40  
    ##  7    18 0.537  0.527 
    ##  8    30 0.809 -1.72  
    ##  9    46 0.491  0.802 
    ## 10    47 0.560  0.566 
    ## # … with 11 more rows
…
